…
``` r
# Let's take a look at the climate data. 
climate_df
```

    ## # A tibble: 239,177 × 7
    ##    dt         AverageTemperat… AverageTemperat… City  Country Latitude Longitude
    ##    <date>                <dbl>            <dbl> <chr> <chr>   <chr>    <chr>    
    ##  1 1849-01-01             26.7             1.44 Abid… Côte D… 5.63N    3.23W    
    ##  2 1849-02-01             27.4             1.36 Abid… Côte D… 5.63N    3.23W    
    ##  3 1849-03-01             28.1             1.61 Abid… Côte D… 5.63N    3.23W    
    ##  4 1849-04-01             26.1             1.39 Abid… Côte D… 5.63N    3.23W    
    ##  5 1849-05-01             25.4             1.2  Abid… Côte D… 5.63N    3.23W    
    ##  6 1849-06-01             24.8             1.40 Abid… Côte D… 5.63N    3.23W    
    ##  7 1849-07-01             24.1             1.25 Abid… Côte D… 5.63N    3.23W    
    ##  8 1849-08-01             23.6             1.26 Abid… Côte D… 5.63N    3.23W    
    ##  9 1849-09-01             23.7             1.23 Abid… Côte D… 5.63N    3.23W    
    ## 10 1849-10-01             25.3             1.18 Abid… Côte D… 5.63N    3.23W    
    ## # … with 239,167 more rows
…
Let’s use our first function, `select()`.

``` r
# Select at its core allows you pick out a selection of columns from your data
# Can folks remember how do this with base R?

# climate_df$dt
# climate_df[,1:2]

#Select does this, but with more power. 
select(climate_df, dt)
```

    ## # A tibble: 239,177 × 1
    ##    dt        
    ##    <date>    
    ##  1 1849-01-01
    ##  2 1849-02-01
    ##  3 1849-03-01
    ##  4 1849-04-01
    ##  5 1849-05-01
    ##  6 1849-06-01
    ##  7 1849-07-01
    ##  8 1849-08-01
    ##  9 1849-09-01
    ## 10 1849-10-01
    ## # … with 239,167 more rows

``` r
# Multiple columns
select(climate_df, dt, City, Country)
```

    ## # A tibble: 239,177 × 3
    ##    dt         City    Country      
    ##    <date>     <chr>   <chr>        
    ##  1 1849-01-01 Abidjan Côte D'Ivoire
    ##  2 1849-02-01 Abidjan Côte D'Ivoire
    ##  3 1849-03-01 Abidjan Côte D'Ivoire
    ##  4 1849-04-01 Abidjan Côte D'Ivoire
    ##  5 1849-05-01 Abidjan Côte D'Ivoire
    ##  6 1849-06-01 Abidjan Côte D'Ivoire
    ##  7 1849-07-01 Abidjan Côte D'Ivoire
    ##  8 1849-08-01 Abidjan Côte D'Ivoire
    ##  9 1849-09-01 Abidjan Côte D'Ivoire
    ## 10 1849-10-01 Abidjan Côte D'Ivoire
    ## # … with 239,167 more rows

``` r
select(climate_df, dt:Country, -City)
```

    ## # A tibble: 239,177 × 4
    ##    dt         AverageTemperature AverageTemperatureUncertainty Country      
    ##    <date>                  <dbl>                         <dbl> <chr>        
    ##  1 1849-01-01               26.7                          1.44 Côte D'Ivoire
    ##  2 1849-02-01               27.4                          1.36 Côte D'Ivoire
    ##  3 1849-03-01               28.1                          1.61 Côte D'Ivoire
    ##  4 1849-04-01               26.1                          1.39 Côte D'Ivoire
    ##  5 1849-05-01               25.4                          1.2  Côte D'Ivoire
    ##  6 1849-06-01               24.8                          1.40 Côte D'Ivoire
    ##  7 1849-07-01               24.1                          1.25 Côte D'Ivoire
    ##  8 1849-08-01               23.6                          1.26 Côte D'Ivoire
    ##  9 1849-09-01               23.7                          1.23 Côte D'Ivoire
    ## 10 1849-10-01               25.3                          1.18 Côte D'Ivoire
    ## # … with 239,167 more rows
…
## Filtering a Dataframe with filter()

`filter()` allows you filter rows by certain conditions. Recall that we
did this a bit with base R.

``` r
# base R
climate_df[climate_df$Country == "United States",]
```

    ## # A tibble: 8,455 × 7
    ##    dt         AverageTemperat… AverageTemperat… City  Country Latitude Longitude
    ##    <date>                <dbl>            <dbl> <chr> <chr>   <chr>    <chr>    
    ##  1 1743-11-01             5.44             2.20 Chic… United… 42.59N   87.27W   
    ##  2 1743-12-01            NA               NA    Chic… United… 42.59N   87.27W   
    ##  3 1744-01-01            NA               NA    Chic… United… 42.59N   87.27W   
    ##  4 1744-02-01            NA               NA    Chic… United… 42.59N   87.27W   
    ##  5 1744-03-01            NA               NA    Chic… United… 42.59N   87.27W   
    ##  6 1744-04-01             8.77             2.36 Chic… United… 42.59N   87.27W   
    ##  7 1744-05-01            11.6              2.10 Chic… United… 42.59N   87.27W   
    ##  8 1744-06-01            18.0              1.99 Chic… United… 42.59N   87.27W   
    ##  9 1744-07-01            21.7              1.79 Chic… United… 42.59N   87.27W   
    ## 10 1744-08-01            NA               NA    Chic… United… 42.59N   87.27W   
    ## # … with 8,445 more rows

``` r
# filter
filter(climate_df, Country == "United States")
```

    ## # A tibble: 8,455 × 7
    ##    dt         AverageTemperat… AverageTemperat… City  Country Latitude Longitude
    ##    <date>                <dbl>            <dbl> <chr> <chr>   <chr>    <chr>    
    ##  1 1743-11-01             5.44             2.20 Chic… United… 42.59N   87.27W   
    ##  2 1743-12-01            NA               NA    Chic… United… 42.59N   87.27W   
    ##  3 1744-01-01            NA               NA    Chic… United… 42.59N   87.27W   
    ##  4 1744-02-01            NA               NA    Chic… United… 42.59N   87.27W   
    ##  5 1744-03-01            NA               NA    Chic… United… 42.59N   87.27W   
    ##  6 1744-04-01             8.77             2.36 Chic… United… 42.59N   87.27W   
    ##  7 1744-05-01            11.6              2.10 Chic… United… 42.59N   87.27W   
    ##  8 1744-06-01            18.0              1.99 Chic… United… 42.59N   87.27W   
    ##  9 1744-07-01            21.7              1.79 Chic… United… 42.59N   87.27W   
    ## 10 1744-08-01            NA               NA    Chic… United… 42.59N   87.27W   
    ## # … with 8,445 more rows

``` r
# Pretty similar, but easy to chain stuff together
filter(climate_df, Country == "United States" & AverageTemperature > 25)
```

    ## # A tibble: 61 × 7
    ##    dt         AverageTemperat… AverageTemperat… City  Country Latitude Longitude
    ##    <date>                <dbl>            <dbl> <chr> <chr>   <chr>    <chr>    
    ##  1 1761-07-01             27.8            2.39  Chic… United… 42.59N   87.27W   
    ##  2 1868-07-01             25.1            0.699 Chic… United… 42.59N   87.27W   
    ##  3 1900-08-01             25.2            0.49  Chic… United… 42.59N   87.27W   
    ##  4 1921-07-01             25.6            0.264 Chic… United… 42.59N   87.27W   
    ##  5 1947-08-01             26.4            0.199 Chic… United… 42.59N   87.27W   
    ##  6 1955-08-01             25.3            0.153 Chic… United… 42.59N   87.27W   
    ##  7 1959-08-01             25.1            0.205 Chic… United… 42.59N   87.27W   
    ##  8 1988-08-01             25.4            0.305 Chic… United… 42.59N   87.27W   
    ##  9 1995-08-01             25.9            0.283 Chic… United… 42.59N   87.27W   
    ## 10 2012-07-01             25.9            0.516 Chic… United… 42.59N   87.27W   
    ## # … with 51 more rows
…
## The pipe

You can use the pipe operator to chain tidyverse functions together.
This has a twofold benefit - it removes the clutter of creating a lot of
intermediate objects in your workspace, but also makes things very
human-readable.

``` r
climate_df %>%
  select(dt, AverageTemperature, City) %>%
  filter(City == "Paris" | City == "Mexico", 
         AverageTemperature < 22)
```

    ## # A tibble: 5,306 × 3
    ##    dt         AverageTemperature City  
    ##    <date>                  <dbl> <chr> 
    ##  1 1835-01-01               13.1 Mexico
    ##  2 1835-02-01               12.3 Mexico
    ##  3 1835-03-01               13.9 Mexico
    ##  4 1835-04-01               16.3 Mexico
    ##  5 1835-05-01               16.9 Mexico
    ##  6 1835-06-01               16.5 Mexico
    ##  7 1835-07-01               15.4 Mexico
    ##  8 1835-08-01               15.2 Mexico
    ##  9 1835-09-01               14.2 Mexico
    ## 10 1835-10-01               13.4 Mexico
    ## # … with 5,296 more rows
…
