…
    ## ── Column specification ────────────────────────────────────────────────────────
    ## Delimiter: ","
    ## chr (4): last, first, sex, specialties
    ## dbl (6): age, height_cm, weight_kg, perc_fish, perc_plant, doctor_trips

    ## 
    ## ℹ Use `spec()` to retrieve the full column specification for this data.
    ## ℹ Specify the column types or set `show_col_types = FALSE` to quiet this message.

``` r
sick
```

    ## # A tibble: 349 × 10
    ##    last   first sex     age height_cm weight_kg specialties perc_fish perc_plant
    ##    <chr>  <chr> <chr> <dbl>     <dbl>     <dbl> <chr>           <dbl>      <dbl>
    ##  1 Gonza… Ange… M        35      169.      51.4 Hydrology       0.994    0.00620
    ##  2 Navra… John  M        19      112.      96.3 Genetics        0.297    0.703  
    ##  3 Duff   Josh… M        26      133.      52.1 Horticultu…     0.514    0.486  
    ##  4 Dotts… Juli… M        36      140.      52.6 Climatology     0.686    0.314  
    ##  5 al-Su… Mune… M        26      194.      52.2 Geology         0.292    0.708  
    ##  6 Galle… Rich… M        29      153.      98.1 Climatology     0.329    0.671  
    ##  7 Walker Trev… M        33      190.     102   Psychology      0.558    0.442  
    ##  8 Hau    Kin   M        22      118.      41.1 Psychology      0.237    0.763  
    ##  9 Zhong  Tobby M        21      121.      49.3 Mechanical…     0.427    0.573  
    ## 10 Scher… Rona… M        36      168.      62.7 Management      0.529    0.471  
    ## # … with 339 more rows, and 1 more variable: doctor_trips <dbl>
…
